<?xml version="1.0" encoding="UTF-8" standalone="no"?>
<!-- Created with Inkscape (http://www.inkscape.org/) -->
<svg
   xmlns:dc="http://purl.org/dc/elements/1.1/"
   xmlns:cc="http://creativecommons.org/ns#"
   xmlns:rdf="http://www.w3.org/1999/02/22-rdf-syntax-ns#"
   xmlns:svg="http://www.w3.org/2000/svg"
   xmlns="http://www.w3.org/2000/svg"
   xmlns:sodipodi="http://sodipodi.sourceforge.net/DTD/sodipodi-0.dtd"
   xmlns:inkscape="http://www.inkscape.org/namespaces/inkscape"
   height="557.5097"
   id="svg1"
   version="1.0"
   width="713.65625"
   x="0.0000000"
   y="0.0000000"
   sodipodi:version="0.32"
   inkscape:version="0.46"
   sodipodi:docname="Anonymous_Closed_Bible.svg"
   inkscape:output_extension="org.inkscape.output.svg.inkscape">
  <sodipodi:namedview
     inkscape:window-height="667"
     inkscape:window-width="640"
     inkscape:pageshadow="2"
     inkscape:pageopacity="0.0"
     guidetolerance="10.0"
     gridtolerance="10.0"
     objecttolerance="10.0"
     borderopacity="1.0"
     bordercolor="#666666"
     pagecolor="#ffffff"
     id="base"
     showgrid="false"
     inkscape:zoom="0.54949495"
     inkscape:cx="495"
     inkscape:cy="382.5"
     inkscape:window-x="88"
     inkscape:window-y="99"
     inkscape:current-layer="svg1" />
  <metadata
     id="metadata3">
    <rdf:RDF>
      <cc:Work
         rdf:about="">
        <dc:title>Closed Bible 01</dc:title>
        <dc:description />
        <dc:subject>
          <rdf:Bag>
            <rdf:li>hash</rdf:li>
            <rdf:li />
            <rdf:li>christianity</rdf:li>
            <rdf:li>religion</rdf:li>
            <rdf:li>education</rdf:li>
            <rdf:li>book</rdf:li>
          </rdf:Bag>
        </dc:subject>
        <dc:publisher>
          <cc:Agent
             rdf:about="http://www.openclipart.org">
            <dc:title>Aaron Johnson</dc:title>
          </cc:Agent>
        </dc:publisher>
        <dc:creator>
          <cc:Agent>
            <dc:title>Aaron Johnson</dc:title>
          </cc:Agent>
        </dc:creator>
        <dc:rights>
          <cc:Agent>
            <dc:title>Aaron Johnson</dc:title>
          </cc:Agent>
        </dc:rights>
        <dc:date />
        <dc:format>image/svg+xml</dc:format>
        <dc:type
           rdf:resource="http://purl.org/dc/dcmitype/StillImage" />
        <cc:license
           rdf:resource="http://web.resource.org/cc/PublicDomain" />
        <dc:language>en</dc:language>
      </cc:Work>
      <cc:License
         rdf:about="http://web.resource.org/cc/PublicDomain">
        <cc:permits
           rdf:resource="http://web.resource.org/cc/Reproduction" />
        <cc:permits
           rdf:resource="http://web.resource.org/cc/Distribution" />
        <cc:permits
           rdf:resource="http://web.resource.org/cc/DerivativeWorks" />
      </cc:License>
    </rdf:RDF>
  </metadata>
  <defs
     id="defs3">
    <inkscape:perspective
       sodipodi:type="inkscape:persp3d"
       inkscape:vp_x="0 : 382.5 : 1"
       inkscape:vp_y="0 : 1000 : 0"
       inkscape:vp_z="990 : 382.5 : 1"
       inkscape:persp3d-origin="495 : 255 : 1"
       id="perspective15" />
  </defs>
  <g
     id="layer1"
     transform="translate(-165.93573,-101.82945)">
    <g
       id="g6712"
       transform="translate(-8.72052,12.5482)">
      <path
         d="M 494.91124,588.46154 L 513.77953,587.83465 L 531.49606,581.43303 L 549.2126,587.83465 L 850.3937,587.83465 L 496.06299,180.35433 L 183.03493,177.33658 L 494.91124,588.46154 z"
         id="path2311"
         style="fill:#000000;fill-opacity:1;fill-rule:evenodd;stroke:#000000;stroke-width:5;stroke-linecap:butt;stroke-linejoin:miter;stroke-miterlimit:4;stroke-opacity:1" />
      <path
         d="M 850.3937,463.8189 C 814.96063,499.25197 805.14443,534.68504 807.41625,570.11811 L 496.06299,570.11811 L 549.2126,463.8189 L 850.3937,463.8189"
         id="path2933"
         style="fill:#ffffff;fill-opacity:1;fill-rule:evenodd;stroke:#000000;stroke-width:5;stroke-linecap:butt;stroke-linejoin:miter;stroke-miterlimit:4;stroke-opacity:1" />
      <path
         d="M 212.59375,91.78125 L 177.15625,180.34375 L 496.0625,587.84375 L 549.21875,481.53125 L 566.9375,481.53125 L 584.65625,489.09375 L 602.375,481.53125 L 885.8125,481.53125 L 531.5,91.78125 L 258.21875,91.78125 L 241.25,98.5625 L 223.53125,91.78125 L 212.59375,91.78125 z"
         id="path1689"
         style="fill:#000000;fill-opacity:1;fill-rule:evenodd;stroke:#000000;stroke-width:5;stroke-linecap:butt;stroke-linejoin:miter;stroke-miterlimit:4;stroke-opacity:1" />
      <path
         d="M 140.32544,381.74556 L 295.9646,566.37761"
         id="path6077"
         style="fill:none;fill-opacity:0.75;fill-rule:evenodd;stroke:#ffffff;stroke-width:25;stroke-linecap:round;stroke-linejoin:miter;stroke-miterlimit:4;stroke-opacity:1"
         transform="translate(306.398,-244.291)" />
      <path
         d="M 270.80569,442.36187 L 101.08268,442.36186 L 101.08268,442.36186"
         id="path6699"
         style="fill:none;fill-opacity:0.75;fill-rule:evenodd;stroke:#ffffff;stroke-width:25;stroke-linecap:round;stroke-linejoin:miter;stroke-miterlimit:4;stroke-opacity:1"
         transform="translate(306.398,-244.291)" />
      <path
         d="M 551.31606,525.5096 C 555.30395,530.39121 556.96911,536.8049 559.33057,542.53546 C 562.29779,548.66729 561.62593,555.63685 561.61207,562.29172 C 562.5724,568.94088 560.46687,574.15585 557.93312,580.005 C 548.98348,589.65699 514.30377,606.2797 552.14885,584.97557 C 559.84914,580.64084 521.25644,602.14977 528.92925,597.76658 C 534.65922,594.51743 540.38918,591.26828 546.11915,588.01913 C 545.81974,588.21895 545.52032,588.41876 545.22091,588.61858 C 505.20176,611.9168 533.766,595.25387 543.37808,589.78195 C 547.19172,587.61094 537.89229,597.13714 537.36564,601.49373 C 535.61451,606.68069 532.84219,611.20547 531.73316,616.50553 C 533.12282,622.63171 536.79674,625.37396 541.65764,628.83944 C 545.07504,630.99281 548.43356,633.08749 551.69541,635.443 L 533.96371,646.79095 C 530.63951,644.42091 527.21604,642.26964 523.81382,639.99464 C 518.48404,636.18267 514.72002,632.71305 513.02384,626.15792 C 513.57369,620.34835 515.68148,615.84733 518.46777,610.71956 C 520.36545,592.92462 560.27278,574.64442 525.60083,596.33452 C 532.91426,592.07281 569.82251,570.89495 530.67082,593.80932 C 523.41384,598.05663 559.77842,576.95805 552.54408,581.24381 C 528.98178,595.20258 532.3105,594.43335 538.59724,588.40865 C 541.30016,582.95857 543.97993,578.39274 542.91593,571.81109 C 542.93206,565.55184 543.63728,558.95459 541.12105,553.11423 C 538.77142,547.35564 537.06743,541.00166 533.1423,536.04296 C 530.49977,531.85398 527.14502,528.18 524.65291,524.06868 C 524.65291,524.06868 548.94277,521.66926 551.31606,525.5096 z"
         id="path6711"
         style="fill:#000000;fill-opacity:1;fill-rule:nonzero;stroke:none;stroke-width:1pt;stroke-linecap:butt;stroke-linejoin:miter;stroke-opacity:1" />
    </g>
  </g>
</svg>
